{
	"extName": {
		"message": "連絡先（CardBook）",
		"description": "Name of the extension - do NOT translate"
	},
	
	"extDesc": {
		"message": "vCardアドレス帳",
		"description": "Description of the extension - do NOT translate"
	},
	
	"browserActionTitle": {
		"message": "連絡先",
		"description": "連絡先タブに切り替える"
	}
}
