{
	"extName": {
		"message": "Kontak (CardBook)",
		"description": "Name of the extension - do NOT translate"
	},
	
	"extDesc": {
		"message": "Buku Alamat vKartu",
		"description": "Description of the extension - do NOT translate"
	},
	
	"browserActionTitle": {
		"message": "Kontak",
		"description": "Beralihlah ke Tab Kontak"
	}
}
